…
``` r
prop.table(table(is.na(afdata1_imputed$FIXBI2)))*100
```

    ## 
    ##    FALSE     TRUE 
    ## 54.17391 45.82609

``` r
afdata1_imputed %>% 
  group_by(Country) %>% 
     summarise(sumNA = sum(is.na(FIXBI2)))
```

    ## # A tibble: 50 x 2
    ##    Country                  sumNA
    ##    <fct>                    <int>
    ##  1 Algeria                      8
    ##  2 Angola                      11
    ##  3 Benin                        7
    ##  4 Botswana                    10
    ##  5 Burkina Faso                 7
    ##  6 Burundi                     13
    ##  7 Cabo Verde                   9
    ##  8 Cameroon                    10
    ##  9 Central African Republic    20
    ## 10 Chad                        14
    ## # ... with 40 more rows
…
